[{
  "for"        : "name",
  "type"       : "text",
  "id"         : "name",
  "name"       : "name",
  "placeholder": "Enter name",
  "disabled"   : ""
},
  {
    "for"        : "type",
    "type"       : "text",
    "id"         : "type",
    "name"       : "type",
    "placeholder": "Enter Type",
    "disabled"   : "disabled"
  },
  {
    "for"        : "x",
    "type"       : "number",
    "id"         : "x",
    "name"       : "x",
    "placeholder": "Enter point X",
    "disabled"   : ""
  },
  {
    "for"        : "y",
    "type"       : "number",
    "id"         : "y",
    "name"       : "y",
    "placeholder": "Enter point Y",
    "disabled"   : ""
  },
  {
    "for": "height",
    "type": "number",
    "id": "height",
    "name": "height",
    "placeholder": "Enter triangle side",
    "disabled"   : ""
  }
]